{
    "physics": {
        "temperature": 0.1,
        "external_flux_quanta": 50.0,
        "penetration_depth": 10.0,
        "crystal_axes_rotation": 0.0,
        "gauge": "symmetric",
        "charge_sign": -1,
        "scattering_energy": 0.0,
        "scattering_phase_shift": 0.0,
        "order_parameter": {
            "s": {
                "critical_temperature": 1.0,
                "initial_phase_shift": 0.0,
                "initial_noise_stddev": 0.0,
                "vortices": [
                    {
                        "center_x": 0.0,
                        "center_y": 0.0,
                        "winding_number": 0.0
                    }
                ]
            }
        }
    },
    "geometry": [
        {
            "disc": {
                "add": true,
                "center_x": 0.0,
                "center_y": 10.0,
                "radius": 10.0
            }
        },
        {
            "disc": {
                "add": true,
                "center_x": 0.0,
                "center_y": -10.0,
                "radius": 10.0
            }
        },
        {
            "polygon": {
                "add": true,
                "vertices_x": [
                    -10.0,
                    -10.0,
                    0.0,
                    15.0,
                    30.0,
                    40.0,
                    40.0,
                    20.0,
                    0.0
                ],
                "vertices_y": [
                    10.0,
                    -10.0,
                    -20.0,
                    -22.0,
                    -20.0,
                    -10.0,
                    15.0,
                    20.0,
                    20.0
                ]
            }
        },
        {
            "disc": {
                "add": false,
                "center_x": 20.0,
                "center_y": 45.0,
                "radius": 30.0
            }
        },
        {
            "polygon": {
                "add": false,
                "vertices_x": [
                    40.0,
                    35.0,
                    40.0
                ],
                "vertices_y": [
                    5.0,
                    0.0,
                    -5.0
                ]
            }
        },
        {
            "regular_polygon": {
                "add": false,
                "center_x": 15.0,
                "center_y": -2.0,
                "num_edges": 4,
                "rotation": 0.0,
                "side_length": 10.0
            }
        },
        {
            "regular_polygon": {
                "add": false,
                "center_x": 15.0,
                "center_y": -2.0,
                "num_edges": 4,
                "rotation": 0.125,
                "side_length": 10.0
            }
        },
        {
            "regular_polygon": {
                "add": false,
                "center_x": 15.0,
                "center_y": -2.0,
                "num_edges": 4,
                "rotation": 0.0625,
                "side_length": 10.0
            }
        },
        {
            "regular_polygon": {
                "add": false,
                "center_x": 15.0,
                "center_y": -2.0,
                "num_edges": 4,
                "rotation": 0.1875,
                "side_length": 10.0
            }
        }
    ],
    "numerics": {
        "convergence_criterion": 1e-03,
        "energy_cutoff": 16.0,
        "norm": "l2",
        "num_energies_per_block": -1,
        "num_fermi_momenta": 32,
        "num_iterations_burnin": 0,
        "num_iterations_max": 1000,
        "num_iterations_min": 0,
        "points_per_coherence_length": 20.0,
        "vector_potential_error": 1e-06
    },
    "accelerator": {
        "name": "congacc"
    },
    "misc": {
        "data_format": "h5",
        "load_path": "",
        "save_order_parameter": true,
        "save_current_density": true,
        "save_vector_potential": true,
        "save_flux_density": true,
        "save_impurity_self_energy": false,
        "save_frequency": -1,
        "save_path": "data/examples/research_reproducibility/superconga_v1_paper/fig_1_riccati_trajectories",
        "verbose": true,
        "visualize": true
    }
}