{
    "physics": {
        "temperature": 0.1,
        "external_flux_quanta": 0.0,
        "penetration_depth": 83.0,
        "crystal_axes_rotation": 0.0,
        "gauge": "symmetric",
        "charge_sign": -1,
        "scattering_energy": 0.0,
        "scattering_phase_shift": 0.0,
        "order_parameter": {
            "s": {
                "critical_temperature": 1.0,
                "initial_phase_shift": 0.0,
                "initial_noise_stddev": 0.0,
                "vortices": []
            }
        }
    },
    "geometry": [
        {
            "polygon": {
                "add": true,
                "vertices_x": [
                    50.0,
                    0.0,
                    0.0,
                    60.0
                ],
                "vertices_y": [
                    60.0,
                    50.0,
                    0.0,
                    0.0
                ]
            }
        }
    ],
    "numerics": {
        "convergence_criterion": 5e-07,
        "energy_cutoff": 16.0,
        "norm": "l2",
        "num_energies_per_block": -1,
        "num_fermi_momenta": 32,
        "num_iterations_burnin": 0,
        "num_iterations_max": 5000,
        "num_iterations_min": 100,
        "points_per_coherence_length": 20.0,
        "vector_potential_error": 1e-06
    },
    "accelerator": {
        "name": "congacc"
    },
    "misc": {
        "data_format": "h5",
        "load_path": "",
        "save_order_parameter": true,
        "save_current_density": true,
        "save_vector_potential": true,
        "save_flux_density": true,
        "save_impurity_self_energy": false,
        "save_frequency": -1,
        "save_path": "data/examples/research_reproducibility/superconga_v1_paper/fig_18_irregular_square_vortices",
        "verbose": true,
        "visualize": false
    }
}